{
  "pops": [
    {	
      "province": "e552ff",
      "name": "Test Pop",
      "religion": "Eastern Orthodox",
      "culture": "Greek",
      "employed": 0.5,
      "literate": 0.05
    },
    {	
      "province": "e552ff",
      "name": "Test Pop with Missing Data",
      "religion": "Eastern Orthodox",
      "culture": "Greek",
      "employed": 0.5
    }
  ]
}
